{
  "manifests": {
    "insyteful/authentication-bundle": {
      "manifest": {
        "bundles": {
          "Insyteful\\AuthenticationBundle\\InsytefulAuthenticationBundle": [
            "all"
          ]
        },
        "copy-from-recipe": {
          "config/": "%CONFIG_DIR%"
        },
        "env": {
          "INSYTEFUL_AUTH_CACHE_TIME": "50 minutes",
          "INSYTEFUL_AUTH_USER_NAME": "<USER_NAME_HERE>",
          "INSYTEFUL_AUTH_PASSWORD": "<PASSWORD>",
          "INSYTEFUL_AUTH_SERVER": "https://auth.insyteful.com"
        }
      },
      "files": {
        "config/packages/insyteful_authentication.yaml": {
          "contents": [
            "insyteful_authentication:",
            "    token_cache_time: '%env(resolve:INSYTEFUL_AUTH_CACHE_TIME)%'",
            "    user_name: '%env(resolve:INSYTEFUL_AUTH_USER_NAME)%'",
            "    password: '%env(resolve:INSYTEFUL_AUTH_PASSWORD)%'",
            "    authentication_server_url: '%env(resolve:INSYTEFUL_AUTH_SERVER)%'",
            ""
          ],
          "executable": false
        }
      },
      "ref": "033b8e9211d68953d0b5273895cb6b2b09e4dbf7"
    }
  }
}